
{
  "resourceType": "Bundle",
  "id": "b56dde05-2fa9-4fc9-bcda-aedf6e3f6305",
  "meta": {
    "lastUpdated": "2016-12-02T15:17:49.498+01:00"
  },
  "type": "searchset",
  "total": 1,
  "link": [
    {
      "relation": "self",
      "url": "http://localhost:8080/baseDstu2/Patient?_format=json&_id=9952&_pretty=true&_revinclude=Observation%3Apatient"
    }
  ],
  "entry": [
    {
      "fullUrl": "http://localhost:8080/baseDstu2/Patient/9952",
      "resource": {
        "resourceType": "Patient",
        "id": "9952",
        "meta": {
          "versionId": "1",
          "lastUpdated": "2016-12-02T14:56:18.913+01:00"
        },
        "text": {
          "status": "generated",
          "div": "<div xmlns=\"http://www.w3.org/1999/xhtml\"><div class=\"hapiHeaderText\">Max <b>MUSTERMANN </b></div><table class=\"hapiPropertyTable\"><tbody><tr><td>Identifier</td><td>1234567890</td></tr><tr><td>Address</td><td><span>Musterhausen </span><span>Macklenburg-Vorpommern </span><span>Deutschland </span></td></tr></tbody></table></div>"
        },
        "identifier": [
          {
            "system": "http://example.com/fictive-pid",
            "value": "1234567890"
          }
        ],
        "name": [
          {
            "use": "official",
            "family": [
              "Myrtille"
            ],
            "given": [
              "Framboise"
            ]
          }
        ],
        "gender": "female",
        "address": [
          {
            "type": "physical",
            "city": "Paris",
            "postalCode": "75000",
            "country": "France"
          }
        ]
      },
      "search": {
        "mode": "match"
      }
    },
    {
      "fullUrl": "http://localhost:8080/baseDstu2/Observation/9953",
      "resource": {
        "resourceType": "Observation",
        "id": "9953",
        "meta": {
          "versionId": "1",
          "lastUpdated": "2016-12-02T15:00:06.326+01:00"
        },
        "language": "de-DE",
        "status": "final",
        "code": {
          "coding": [
            {
              "system": "DESIREE",
              "code": "Lesion_Size_Clinical_Var",
              "display": "lesionh size"
            }
          ]
        },
        "subject": {
          "reference": "Patient/9952"
        },
        "effectiveDateTime": "2016-11-02T22:59:19+01:00",
        "issued": "2016-11-02T22:59:19.802+01:00",
        "valueQuantity": {
          "value": 42,
          "unit": "mm",
          "system": "http://unitsofmeasure.org/",
          "code": "s-1"
        }
      },
      "search": {
        "mode": "include"
      }
    },
    {
      "fullUrl": "http://localhost:8080/baseDstu2/Observation/9954",
      "resource": {
        "resourceType": "Observation",
        "id": "9954",
        "meta": {
          "versionId": "1",
          "lastUpdated": "2016-12-02T15:07:25.486+01:00"
        },
        "status": "final",
        "code": {
          "coding": [
            {
              "system": "DESIREE",
              "code": "ER_Status_Var",
              "display": "estrogen receptor status"
            }
          ]
        },
        "subject": {
          "reference": "Patient/9952"
        }
      },
      "search": {
        "mode": "include"
      }
    },
    {
      "fullUrl": "http://localhost:8080/baseDstu2/Observation/9955",
      "resource": {
        "resourceType": "Observation",
        "id": "9955",
        "meta": {
          "versionId": "1",
          "lastUpdated": "2016-12-02T15:10:48.587+01:00"
        },
        "status": "final",
        "code": {
          "coding": [
            {
              "system": "DESIREE",
              "code": "ER_Status_Var",
              "display": "estrogen receptor status"
            }
          ]
        },
        "subject": {
          "reference": "Patient/9952"
        }
      },
      "search": {
        "mode": "include"
      }
    },
    {
      "fullUrl": "http://localhost:8080/baseDstu2/Observation/9956",
      "resource": {
        "resourceType": "Observation",
        "id": "9956",
        "meta": {
          "versionId": "1",
          "lastUpdated": "2016-12-02T15:12:24.074+01:00"
        },
        "status": "final",
        "code": {
          "coding": [
            {
              "system": "DESIREE",
              "code": "ER_Status_Var",
              "display": "estrogen receptor status"
            }
          ]
        },
        "subject": {
          "reference": "Patient/9952"
        }
      },
      "search": {
        "mode": "include"
      }
    },
    {
      "fullUrl": "http://localhost:8080/baseDstu2/Observation/9957",
      "resource": {
        "resourceType": "Observation",
        "id": "9957",
        "meta": {
          "versionId": "1",
          "lastUpdated": "2016-12-02T15:13:26.488+01:00"
        },
        "status": "final",
        "code": {
          "coding": [
            {
              "system": "DESIREE",
              "code": "ER_Status_Var",
              "display": "estrogen receptor status"
            }
          ]
        },
        "subject": {
          "reference": "Patient/9952"
        }
      },
      "search": {
        "mode": "include"
      }
    }
  ]
}


