package usecase_n3_0
import n3_project.helpers.Triple;
import n3_project.helpers.TripleList;
import n3_project.helpers.TripleResult;
import unif.TripleUser;
import eulergui.inference.drools.impl.Assignment;
import eulergui.inference.drools.impl.DeferredPropertyAssignment;
import eulergui.inference.drools.impl.DeferredMethodCall;
import eulergui.inference.drools.impl.DroolsN3EngineRuntime;
import java.util.ArrayList;
import java.util.Map;
global Map /*<Triple, Integer>*/ object2rule;
declare Assignment @typesafe( false ) end


// ---------- N3 rule 0 ----------
/* {
?p <http://www.w3.org/1999/02/22-rdf-syntax-ns#type> <http://www.desiree.org/ontologies/usecase#Patient>.
?p <http://www.desiree.org/ontologies/usecase#Patient_Name> ?n.
?n <http://www.w3.org/2000/10/swap/log#equalTo> "Doe".
}
 => {
?p <http://www.desiree.org/ontologies/usecase#Patient_Name> "Eod".
}
.
 */

rule "usecase.n3 0"
when
  $Triple_1 : Triple( $p : subject, predicate == "<http://www.w3.org/1999/02/22-rdf-syntax-ns#type>", object == "<http://www.desiree.org/ontologies/usecase#Patient>" )
  $Triple_2 : Triple( subject == $p, predicate == "<http://www.desiree.org/ontologies/usecase#Patient_Name>", $n : object )
# log:equalTo
  Triple( this == $Triple_2 , $n == "\"Doe\"" )
then
  Triple newTriple;
  TripleResult newTripleResult;
  newTriple = new Triple(  );
  newTriple.setSubject( $p );
  newTriple.setPredicate( "<http://www.desiree.org/ontologies/usecase#Patient_Name>".toString() );
  newTriple.setObject( "\"Eod\"" );  insertLogical( newTriple );

end

// ---------- N3 rule 1 ----------
/* {
?ob1 <http://www.w3.org/1999/02/22-rdf-syntax-ns#type> <http://www.desiree.org/ontologies/usecase#BodyHeight>.
?ob1 <http://www.desiree.org/ontologies/usecase#BodyHeight_Nvalue> ?v1.
?ob2 <http://www.w3.org/1999/02/22-rdf-syntax-ns#type> <http://www.desiree.org/ontologies/usecase#BodyWeight>.
?ob2 <http://www.desiree.org/ontologies/usecase#BodyWeight_Nvalue> ?v2.
_:list2 <http://www.w3.org/1999/02/22-rdf-syntax-ns#first> ?v1.
_:list1 <http://www.w3.org/1999/02/22-rdf-syntax-ns#first> ?v2.
_:list1 <http://www.w3.org/1999/02/22-rdf-syntax-ns#rest> <http://www.w3.org/1999/02/22-rdf-syntax-ns#nil>.
_:list2 <http://www.w3.org/1999/02/22-rdf-syntax-ns#rest> _:list1.
_:list2 <http://www.w3.org/2000/10/swap/math#sum> ?V.
}
 => {
<usecase.n3#bmi> <http://www.w3.org/1999/02/22-rdf-syntax-ns#type> <http://www.desiree.org/ontologies/usecase#BodyMassIndex>.
<usecase.n3#bmi> <http://www.desiree.org/ontologies/usecase#BodyMassIndex_Nvalue> ?V.
_:list5 <http://www.w3.org/1999/02/22-rdf-syntax-ns#first> "Body mass computed".
_:list4 <http://www.w3.org/1999/02/22-rdf-syntax-ns#first> ?V.
_:list4 <http://www.w3.org/1999/02/22-rdf-syntax-ns#rest> <http://www.w3.org/1999/02/22-rdf-syntax-ns#nil>.
_:list5 <http://www.w3.org/1999/02/22-rdf-syntax-ns#rest> _:list4.
_:d <http://eulergui.sourceforge.net/engine.owl#trace> _:list5.
}
.
 */

rule "usecase.n3 1"
when
  $Triple_1 : Triple( $ob1 : subject, predicate == "<http://www.w3.org/1999/02/22-rdf-syntax-ns#type>", object == "<http://www.desiree.org/ontologies/usecase#BodyHeight>" )
  $Triple_2 : Triple( subject == $ob1, predicate == "<http://www.desiree.org/ontologies/usecase#BodyHeight_Nvalue>", $v1 : object )
  $Triple_3 : Triple( $ob2 : subject, predicate == "<http://www.w3.org/1999/02/22-rdf-syntax-ns#type>", object == "<http://www.desiree.org/ontologies/usecase#BodyWeight>" )
  $Triple_4 : Triple( subject == $ob2, predicate == "<http://www.desiree.org/ontologies/usecase#BodyWeight_Nvalue>", $v2 : object )
then
  Double $V =  new Double( Double.parseDouble( Triple.n3ValueToNumeric($v1 )) + Double.parseDouble( Triple.n3ValueToNumeric($v2 )) );
  Triple newTriple;
  TripleResult newTripleResult;
  newTriple = new Triple(  );
  newTriple.setSubject( "<usecase.n3#bmi>" );
  newTriple.setPredicate( "<http://www.w3.org/1999/02/22-rdf-syntax-ns#type>".toString() );
  newTriple.setObject( "<http://www.desiree.org/ontologies/usecase#BodyMassIndex>" );  insertLogical( newTriple );
  newTriple = new Triple(  );
  newTriple.setSubject( "<usecase.n3#bmi>" );
  newTriple.setPredicate( "<http://www.desiree.org/ontologies/usecase#BodyMassIndex_Nvalue>".toString() );
  newTriple.setObject( $V );  insertLogical( newTriple );
  System.out.println( "#TRACE ( " + "\"Body mass computed\"" + " " + $V + " " +  ")" );

end

// ---------- N3 rule 2 ----------
/* {
?er <http://www.w3.org/1999/02/22-rdf-syntax-ns#type> <http://www.desiree.org/ontologies/usecase#ER>.
?er <http://www.desiree.org/ontologies/usecase#Observation_Nvalue> ?v.
?v <http://www.w3.org/2000/10/swap/math#lessThan> 10.
}
 => {
_:list6 <http://www.w3.org/1999/02/22-rdf-syntax-ns#first> "R1 triggered".
_:list6 <http://www.w3.org/1999/02/22-rdf-syntax-ns#rest> <http://www.w3.org/1999/02/22-rdf-syntax-ns#nil>.
_:d <http://eulergui.sourceforge.net/engine.owl#trace> _:list6.
<usecase.n3#tc1> <http://www.w3.org/1999/02/22-rdf-syntax-ns#type> <http://www.desiree.org/ontologies/usecase#TumorER>.
<usecase.n3#tc1> <http://www.desiree.org/ontologies/usecase#DC_Value> "ER-".
}
.
 */

rule "usecase.n3 2"
when
  $Triple_1 : Triple( $er : subject, predicate == "<http://www.w3.org/1999/02/22-rdf-syntax-ns#type>", object == "<http://www.desiree.org/ontologies/usecase#ER>" )
  $Triple_2 : Triple( subject == $er, predicate == "<http://www.desiree.org/ontologies/usecase#Observation_Nvalue>", $v : object )
  Triple( this == $Triple_2 , Double.parseDouble( Triple.n3ValueToNumeric($v )) < 10 )
then
  Triple newTriple;
  TripleResult newTripleResult;
  System.out.println( "#TRACE ( " + "\"R1 triggered\"" + " " +  ")" );
  newTriple = new Triple(  );
  newTriple.setSubject( "<usecase.n3#tc1>" );
  newTriple.setPredicate( "<http://www.w3.org/1999/02/22-rdf-syntax-ns#type>".toString() );
  newTriple.setObject( "<http://www.desiree.org/ontologies/usecase#TumorER>" );  insertLogical( newTriple );
  newTriple = new Triple(  );
  newTriple.setSubject( "<usecase.n3#tc1>" );
  newTriple.setPredicate( "<http://www.desiree.org/ontologies/usecase#DC_Value>".toString() );
  newTriple.setObject( "\"ER-\"" );  insertLogical( newTriple );

end

// ---------- N3 rule 3 ----------
/* {
?pr <http://www.w3.org/1999/02/22-rdf-syntax-ns#type> <http://www.desiree.org/ontologies/usecase#PR>.
?pr <http://www.desiree.org/ontologies/usecase#Observation_Nvalue> ?v.
?v <http://www.w3.org/2000/10/swap/math#lessThan> 10.
}
 => {
_:list7 <http://www.w3.org/1999/02/22-rdf-syntax-ns#first> "R2 triggered".
_:list7 <http://www.w3.org/1999/02/22-rdf-syntax-ns#rest> <http://www.w3.org/1999/02/22-rdf-syntax-ns#nil>.
_:d <http://eulergui.sourceforge.net/engine.owl#trace> _:list7.
<usecase.n3#tc2> <http://www.w3.org/1999/02/22-rdf-syntax-ns#type> <http://www.desiree.org/ontologies/usecase#TumorPR>.
<usecase.n3#tc2> <http://www.desiree.org/ontologies/usecase#DC_Value> "PgR-".
}
.
 */

rule "usecase.n3 3"
when
  $Triple_1 : Triple( $pr : subject, predicate == "<http://www.w3.org/1999/02/22-rdf-syntax-ns#type>", object == "<http://www.desiree.org/ontologies/usecase#PR>" )
  $Triple_2 : Triple( subject == $pr, predicate == "<http://www.desiree.org/ontologies/usecase#Observation_Nvalue>", $v : object )
  Triple( this == $Triple_2 , Double.parseDouble( Triple.n3ValueToNumeric($v )) < 10 )
then
  Triple newTriple;
  TripleResult newTripleResult;
  System.out.println( "#TRACE ( " + "\"R2 triggered\"" + " " +  ")" );
  newTriple = new Triple(  );
  newTriple.setSubject( "<usecase.n3#tc2>" );
  newTriple.setPredicate( "<http://www.w3.org/1999/02/22-rdf-syntax-ns#type>".toString() );
  newTriple.setObject( "<http://www.desiree.org/ontologies/usecase#TumorPR>" );  insertLogical( newTriple );
  newTriple = new Triple(  );
  newTriple.setSubject( "<usecase.n3#tc2>" );
  newTriple.setPredicate( "<http://www.desiree.org/ontologies/usecase#DC_Value>".toString() );
  newTriple.setObject( "\"PgR-\"" );  insertLogical( newTriple );

end

// ---------- N3 rule 4 ----------
/* {
?her <http://www.w3.org/1999/02/22-rdf-syntax-ns#type> <http://www.desiree.org/ontologies/usecase#HER2>.
?her <http://www.desiree.org/ontologies/usecase#Observation_Svalue> ?v.
?v <http://www.w3.org/2000/10/swap/log#equalTo> "+".
}
 => {
_:list8 <http://www.w3.org/1999/02/22-rdf-syntax-ns#first> "R3 triggered".
_:list8 <http://www.w3.org/1999/02/22-rdf-syntax-ns#rest> <http://www.w3.org/1999/02/22-rdf-syntax-ns#nil>.
_:d <http://eulergui.sourceforge.net/engine.owl#trace> _:list8.
<usecase.n3#tc3> <http://www.w3.org/1999/02/22-rdf-syntax-ns#type> <http://www.desiree.org/ontologies/usecase#TumorHER2>.
<usecase.n3#tc3> <http://www.desiree.org/ontologies/usecase#DC_Value> "HER2-".
}
.
 */

rule "usecase.n3 4"
when
  $Triple_1 : Triple( $her : subject, predicate == "<http://www.w3.org/1999/02/22-rdf-syntax-ns#type>", object == "<http://www.desiree.org/ontologies/usecase#HER2>" )
  $Triple_2 : Triple( subject == $her, predicate == "<http://www.desiree.org/ontologies/usecase#Observation_Svalue>", $v : object )
# log:equalTo
  Triple( this == $Triple_2 , $v == "\"+\"" )
then
  Triple newTriple;
  TripleResult newTripleResult;
  System.out.println( "#TRACE ( " + "\"R3 triggered\"" + " " +  ")" );
  newTriple = new Triple(  );
  newTriple.setSubject( "<usecase.n3#tc3>" );
  newTriple.setPredicate( "<http://www.w3.org/1999/02/22-rdf-syntax-ns#type>".toString() );
  newTriple.setObject( "<http://www.desiree.org/ontologies/usecase#TumorHER2>" );  insertLogical( newTriple );
  newTriple = new Triple(  );
  newTriple.setSubject( "<usecase.n3#tc3>" );
  newTriple.setPredicate( "<http://www.desiree.org/ontologies/usecase#DC_Value>".toString() );
  newTriple.setObject( "\"HER2-\"" );  insertLogical( newTriple );

end

// ---------- N3 rule 5 ----------
/* {
?tc1 <http://www.w3.org/1999/02/22-rdf-syntax-ns#type> <http://www.desiree.org/ontologies/usecase#TumorER>.
?tc1 <http://www.desiree.org/ontologies/usecase#DC_Value> ?v1.
?tc2 <http://www.w3.org/1999/02/22-rdf-syntax-ns#type> <http://www.desiree.org/ontologies/usecase#TumorPR>.
?tc2 <http://www.desiree.org/ontologies/usecase#DC_Value> ?v2.
?tc3 <http://www.w3.org/1999/02/22-rdf-syntax-ns#type> <http://www.desiree.org/ontologies/usecase#TumorHER2>.
?tc3 <http://www.desiree.org/ontologies/usecase#DC_Value> ?v3.
?v1 <http://www.w3.org/2000/10/swap/log#equalTo> "ER-".
?v2 <http://www.w3.org/2000/10/swap/log#equalTo> "PgR-".
?v3 <http://www.w3.org/2000/10/swap/log#equalTo> "HER2-".
}
 => {
_:list9 <http://www.w3.org/1999/02/22-rdf-syntax-ns#first> "R4 triggered".
_:list9 <http://www.w3.org/1999/02/22-rdf-syntax-ns#rest> <http://www.w3.org/1999/02/22-rdf-syntax-ns#nil>.
_:d <http://eulergui.sourceforge.net/engine.owl#trace> _:list9.
_:ts <http://www.w3.org/1999/02/22-rdf-syntax-ns#type> <http://www.desiree.org/ontologies/usecase#TumorStatus>.
_:ts <http://www.desiree.org/ontologies/usecase#DC_Value> "---".
}
.
 */

rule "usecase.n3 5"
when
  $Triple_1 : Triple( $tc1 : subject, predicate == "<http://www.w3.org/1999/02/22-rdf-syntax-ns#type>", object == "<http://www.desiree.org/ontologies/usecase#TumorER>" )
  $Triple_2 : Triple( subject == $tc1, predicate == "<http://www.desiree.org/ontologies/usecase#DC_Value>", $v1 : object )
  $Triple_3 : Triple( $tc2 : subject, predicate == "<http://www.w3.org/1999/02/22-rdf-syntax-ns#type>", object == "<http://www.desiree.org/ontologies/usecase#TumorPR>" )
  $Triple_4 : Triple( subject == $tc2, predicate == "<http://www.desiree.org/ontologies/usecase#DC_Value>", $v2 : object )
  $Triple_5 : Triple( $tc3 : subject, predicate == "<http://www.w3.org/1999/02/22-rdf-syntax-ns#type>", object == "<http://www.desiree.org/ontologies/usecase#TumorHER2>" )
  $Triple_6 : Triple( subject == $tc3, predicate == "<http://www.desiree.org/ontologies/usecase#DC_Value>", $v3 : object )
# log:equalTo
  Triple( this == $Triple_6 , $v1 == "\"ER-\"" )
# log:equalTo
  Triple( this == $Triple_6 , $v2 == "\"PgR-\"" )
# log:equalTo
  Triple( this == $Triple_6 , $v3 == "\"HER2-\"" )
then
  Triple newTriple;
  TripleResult newTripleResult;
  System.out.println( "#TRACE ( " + "\"R4 triggered\"" + " " +  ")" );
  String $ts = Triple.resource("ts") ;
  newTriple = new Triple(  );
  newTriple.setSubject( $ts );
  newTriple.setPredicate( "<http://www.w3.org/1999/02/22-rdf-syntax-ns#type>".toString() );
  newTriple.setObject( "<http://www.desiree.org/ontologies/usecase#TumorStatus>" );  insertLogical( newTriple );
  newTriple = new Triple(  );
  newTriple.setSubject( $ts );
  newTriple.setPredicate( "<http://www.desiree.org/ontologies/usecase#DC_Value>".toString() );
  newTriple.setObject( "\"---\"" );  insertLogical( newTriple );

end

// ---------- N3 rule 6 ----------
/* {
?ts <http://www.w3.org/1999/02/22-rdf-syntax-ns#type> <http://www.desiree.org/ontologies/usecase#TumorStatus>.
?ts <http://www.desiree.org/ontologies/usecase#DC_Value> ?v.
?v <http://www.w3.org/2000/10/swap/log#equalTo> "---".
}
 => {
_:list10 <http://www.w3.org/1999/02/22-rdf-syntax-ns#first> "R5 triggered".
_:list10 <http://www.w3.org/1999/02/22-rdf-syntax-ns#rest> <http://www.w3.org/1999/02/22-rdf-syntax-ns#nil>.
_:d <http://eulergui.sourceforge.net/engine.owl#trace> _:list10.
_:reco <http://www.w3.org/1999/02/22-rdf-syntax-ns#type> <http://www.desiree.org/ontologies/usecase#Recommendation>.
_:reco <http://www.desiree.org/ontologies/usecase#Reco_Text> "Chemotherapy".
_:list13 <http://www.w3.org/1999/02/22-rdf-syntax-ns#first> "Conclusion ".
_:list12 <http://www.w3.org/1999/02/22-rdf-syntax-ns#first> _:reco.
_:list12 <http://www.w3.org/1999/02/22-rdf-syntax-ns#rest> <http://www.w3.org/1999/02/22-rdf-syntax-ns#nil>.
_:list13 <http://www.w3.org/1999/02/22-rdf-syntax-ns#rest> _:list12.
_:d <http://eulergui.sourceforge.net/engine.owl#trace> _:list13.
}
.
 */

rule "usecase.n3 6"
when
  $Triple_1 : Triple( $ts : subject, predicate == "<http://www.w3.org/1999/02/22-rdf-syntax-ns#type>", object == "<http://www.desiree.org/ontologies/usecase#TumorStatus>" )
  $Triple_2 : Triple( subject == $ts, predicate == "<http://www.desiree.org/ontologies/usecase#DC_Value>", $v : object )
# log:equalTo
  Triple( this == $Triple_2 , $v == "\"---\"" )
then
  Triple newTriple;
  TripleResult newTripleResult;
  System.out.println( "#TRACE ( " + "\"R5 triggered\"" + " " +  ")" );
  String $reco = Triple.resource("reco") ;
  newTriple = new Triple(  );
  newTriple.setSubject( $reco );
  newTriple.setPredicate( "<http://www.w3.org/1999/02/22-rdf-syntax-ns#type>".toString() );
  newTriple.setObject( "<http://www.desiree.org/ontologies/usecase#Recommendation>" );  insertLogical( newTriple );
  newTriple = new Triple(  );
  newTriple.setSubject( $reco );
  newTriple.setPredicate( "<http://www.desiree.org/ontologies/usecase#Reco_Text>".toString() );
  newTriple.setObject( "\"Chemotherapy\"" );  insertLogical( newTriple );
  System.out.println( "#TRACE ( " + "\"Conclusion \"" + " " + $reco + " " +  ")" );
end

query "userData"
    $Triple_1 : Triple( $RESOURCE : subject, predicate == "<http://jmvanel.free.fr/ontology/software_applications.owl#status>", object == "<http://jmvanel.free.fr/ontology/software_applications.owl#userData>" )
  $Triple_2 : Triple( subject == $RESOURCE, $PREDICATE : predicate, $VALUE : object )

end
